Getting started
…
# load feature data
tas_features <- get_tas_features()

Let’s have a look at the planning unit data. The tas_pu object contains planning units represented as spatial polygons (i.e., a sf::st_sf() object). This object has three columns that denote the following information for each planning unit: a unique identifier (id), unimproved land value (cost), and current conservation status (locked_in). Planning units that have at least half of their area overlapping with existing protected areas are denoted with a locked in TRUE value, otherwise they are denoted with a value of FALSE. We will also set the costs for existing protected areas to zero, so that existing protected areas aren’t included in the the cost of the prioritization.

# print planning unit data
print(tas_pu)

## Simple feature collection with 1130 features and 4 fields
## Geometry type: MULTIPOLYGON
## Dimension:     XY
## Bounding box:  xmin: 298809.6 ymin: 5167775 xmax: 613818.8 ymax: 5502544
## Projected CRS: WGS 84 / UTM zone 55S
## # A tibble: 1,130 × 5
##       id  cost locked_in locked_out                                         geom
##    <int> <dbl> <lgl>     <lgl>                                <MULTIPOLYGON [m]>
##  1     1 60.2  FALSE     TRUE       (((328497 5497704, 326783.8 5500050, 326775…
##  2     2 19.9  FALSE     FALSE      (((307121.6 5490487, 305344.4 5492917, 3053…
##  3     3 59.7  FALSE     TRUE       (((321726.1 5492382, 320111 5494593, 320127…
##  4     4 32.4  FALSE     FALSE      (((304314.5 5494324, 304342.2 5494287, 3043…
##  5     5 26.2  FALSE     FALSE      (((314958.5 5487057, 312336 5490646, 312339…
##  6     6 51.3  FALSE     FALSE      (((327904.3 5491218, 326594.6 5493012, 3284…
##  7     7 32.3  FALSE     FALSE      (((308194.1 5481729, 306601.2 5483908, 3066…
##  8     8 38.4  FALSE     FALSE      (((322792.7 5483624, 319965.3 5487497, 3199…
##  9     9  3.55 FALSE     FALSE      (((334896.6 5490731, 335610.4 5492490, 3357…
## 10    10  1.83 FALSE     FALSE      (((356377.1 5487952, 353903.1 5487635, 3538…
## # ℹ 1,120 more rows
…
Feature representation

Let’s examine how well the vegetation communities are represented by existing protected areas and the prioritization.

# create column with existing protected areas
tas_pu$pa <- round(tas_pu$locked_in)

# calculate feature representation statistics based on existing protected areas
tc_pa <- eval_target_coverage_summary(p1, tas_pu[, "pa"])
print(tc_pa)

## # A tibble: 33 × 9
##    feature   met   total_amount absolute_target absolute_held absolute_shortfall
##    <chr>     <lgl>        <dbl>           <dbl>         <dbl>              <dbl>
##  1 Banksia … TRUE          2.00           0.340         0.367              0    
##  2 Boulders… TRUE        140.            23.9          65.5                0    
##  3 Callitri… FALSE         6.00           1.02          0.487              0.533
##  4 Cool tem… TRUE       7257.          1234.         2992.                 0    
##  5 Eucalypt… TRUE       5699.           969.         1398.                 0    
##  6 Eucalypt… FALSE      9180.          1561.         1030.               531.   
##  7 Eucalypt… TRUE         38.0            6.46         15.1                0    
##  8 Eucalypt… FALSE      1908.           324.          189.               135.   
##  9 Eucalypt… FALSE       388.            65.9          27.4               38.6  
## 10 Eucalypt… TRUE       6145.          1045.         1449.                 0    
## # ℹ 23 more rows
## # ℹ 3 more variables: relative_target <dbl>, relative_held <dbl>,
## #   relative_shortfall <dbl>

# calculate  feature representation statistics based on the prioritization
tc_s1 <- eval_target_coverage_summary(p1, s1[, "solution_1"])
print(tc_s1)

## # A tibble: 33 × 9
##    feature   met   total_amount absolute_target absolute_held absolute_shortfall
##    <chr>     <lgl>        <dbl>           <dbl>         <dbl>              <dbl>
##  1 Banksia … TRUE          2.00           0.340         0.367                  0
##  2 Boulders… TRUE        140.            23.9          70.8                    0
##  3 Callitri… TRUE          6.00           1.02          1.49                   0
##  4 Cool tem… TRUE       7257.          1234.         3289.                     0
##  5 Eucalypt… TRUE       5699.           969.         1759.                     0
##  6 Eucalypt… TRUE       9180.          1561.         1738.                     0
##  7 Eucalypt… TRUE         38.0            6.46         19.0                    0
##  8 Eucalypt… TRUE       1908.           324.          325.                     0
##  9 Eucalypt… TRUE        388.            65.9          72.8                    0
## 10 Eucalypt… TRUE       6145.          1045.         2088.                     0
## # ℹ 23 more rows
## # ℹ 3 more variables: relative_target <dbl>, relative_held <dbl>,
## #   relative_shortfall <dbl>
…
print(prt)

## Simple feature collection with 1130 features and 1004 fields
## Geometry type: MULTIPOLYGON
## Dimension:     XY
## Bounding box:  xmin: 298809.6 ymin: 5167775 xmax: 613818.8 ymax: 5502544
## Projected CRS: WGS 84 / UTM zone 55S
## # A tibble: 1,130 × 1,005
##       id  cost locked_in locked_out solution_1 solution_2 solution_3 solution_4
##  * <int> <dbl> <lgl>     <lgl>           <dbl>      <dbl>      <dbl>      <dbl>
##  1     1 60.2  FALSE     TRUE                0          0          0          0
##  2     2 19.9  FALSE     FALSE               0          0          0          0
##  3     3 59.7  FALSE     TRUE                0          0          0          0
##  4     4 32.4  FALSE     FALSE               0          0          0          0
##  5     5 26.2  FALSE     FALSE               0          0          0          0
##  6     6 51.3  FALSE     FALSE               0          0          0          0
##  7     7 32.3  FALSE     FALSE               0          0          0          0
##  8     8 38.4  FALSE     FALSE               0          0          0          0
##  9     9  3.55 FALSE     FALSE               0          0          0          0
## 10    10  1.83 FALSE     FALSE               0          0          0          0
## # ℹ 1,120 more rows
## # ℹ 997 more variables: solution_5 <dbl>, solution_6 <dbl>, solution_7 <dbl>,
## #   solution_8 <dbl>, solution_9 <dbl>, solution_10 <dbl>, solution_11 <dbl>,
## #   solution_12 <dbl>, solution_13 <dbl>, solution_14 <dbl>, solution_15 <dbl>,
## #   solution_16 <dbl>, solution_17 <dbl>, solution_18 <dbl>, solution_19 <dbl>,
## #   solution_20 <dbl>, solution_21 <dbl>, solution_22 <dbl>, solution_23 <dbl>,
## #   solution_24 <dbl>, solution_25 <dbl>, solution_26 <dbl>, …
…
