Tasmania Tutorial
…
# count number of planning units in solution
sum(s1$solution_1)

## [1] 306

# proportion of planning units in solution
mean(s1$solution_1)

## [1] 0.2707965

# calculate feature representation
r1 <- feature_representation(p1, s1[, "solution_1", drop = FALSE])
print(r1)

## # A tibble: 62 x 3
##    feature absolute_held relative_held
##    <chr>           <dbl>         <dbl>
##  1 veg1             8.13         0.251
##  2 veg2            41.3          0.230
##  3 veg3             4.90         0.210
##  4 veg4             6.67         0.192
##  5 veg5             6.44         0.246
##  6 veg6             7.00         0.303
##  7 veg7             3.80         0.197
##  8 veg8            14.4          0.307
##  9 veg9            71.1          0.185
## 10 veg10            3.48         0.235
## # ... with 52 more rows
…
# calculate feature representation
r2 <- feature_representation(p2, s2[, "solution_1"])
print(r2)

## # A tibble: 62 x 3
##    feature         absolute_held relative_held
##    <chr>                   <dbl>         <dbl>
##  1 tas_features.1           8.13         0.251
##  2 tas_features.2          41.3          0.230
##  3 tas_features.3           4.90         0.210
##  4 tas_features.4           6.67         0.192
##  5 tas_features.5           6.44         0.246
##  6 tas_features.6           7.00         0.303
##  7 tas_features.7           3.80         0.197
##  8 tas_features.8          14.4          0.307
##  9 tas_features.9          71.1          0.185
## 10 tas_features.10          3.48         0.235
## # ... with 52 more rows
…
